<?xml version="1.0" encoding="UTF-8"?>
<svg width="130px" height="130px" viewBox="0 0 130 130" version="1.1" xmlns="http://www.w3.org/2000/svg" xmlns:xlink="http://www.w3.org/1999/xlink">
    <!-- Generator: Sketch 53 (72520) - https://sketchapp.com -->
    <title>beneficio_suavidad_naranja</title>
    <desc>Created with Sketch.</desc>
    <g id="beneficio_suavidad_naranja" stroke="none" stroke-width="1" fill="none" fill-rule="evenodd">
        <rect id="Rectangle" fill="#FFFFFF" x="5" y="5" width="120" height="120" rx="25"></rect>
        <g id="Mesa-de-trabajo-8-copia-2" transform="translate(8.000000, 23.000000)" fill-rule="nonzero">
            <path d="M113.967934,42.6640805 C113.440762,34.0808667 106.020296,27.5326019 97.3625566,28.0104987 C95.1392505,24.709079 91.4072154,22.7188496 87.4040381,22.6997939 C83.4008609,22.6807383 79.6497319,24.6353469 77.39457,27.9154485 C65.0543543,17.4836824 49.3595168,18.5926021 40.9170521,22.7589718 C37.8260078,19.471817 30.4857759,18.0064588 25.4458561,19.7252844 C17.9378932,22.3391665 13.4650642,29.2303104 12.8260886,36.8580938 C9.35023095,35.6194756 5.46597783,36.4716739 2.84135336,39.0487272 C0.216728881,41.6257805 -0.681214444,45.4691016 0.53312933,48.9282438 C1.74747311,52.387386 4.85801124,54.8467943 8.52897789,55.2503191 C7.76387895,56.9758893 7.42699316,58.8581883 7.54655296,60.7394716 C7.81708915,65.2250488 10.6032758,69.1805115 14.7570664,70.9760138 C18.9108571,72.7715162 23.7293161,72.1032098 27.2270005,69.2464699 C29.9435405,73.9245229 34.9216515,76.860926 40.3634845,76.9951947 C45.8053175,77.1294635 50.9245177,74.4421959 53.8722818,69.9039009 C59.2900048,73.0015627 66.042891,72.625373 71.076699,68.9454774 C73.1102082,74.0361514 78.3736156,77.1037613 83.847744,76.3886756 C89.3218724,75.6735898 93.6047153,71.3589525 94.2395635,65.9197108 C97.1870867,68.2743469 101.255854,68.6883027 104.624083,66.9762302 C107.992312,65.2641578 110.02914,61.746725 109.82258,57.9988558 C109.760594,56.9473276 109.520272,55.9136899 109.11172,54.9414058 C112.486126,51.7655311 114.265028,47.2681686 113.967934,42.6640805 L113.967934,42.6640805 Z" id="Path" fill="#F0FEFF"></path>
            <path d="M83,49.5837923 C83,49.5837923 87.6953665,52.7702596 92.5394197,49.5837923 C97.3834728,46.3973249 88.6266142,42 88.6266142,42 L83,49.5837923 Z" id="Path" fill="#EAEDF2"></path>
            <path d="M83,49 C83,49 88.1221719,46.992 90.5927602,43 L91,43.272 C89.3705902,46.0961881 86.4635508,48.1776283 83,49 L83,49 Z" id="Path" fill="#D7D7D7"></path>
            <path d="M65.3649489,15.175969 C65.3649489,15.175969 56.909104,0.969187083 63.5357593,0.0336185194 C70.1624145,-0.901950044 83,18 83,18 L65.3649489,15.175969 Z" id="Path" fill="#EAEDF2"></path>
            <path d="M74.7351109,16.2123175 L80,17 C80,17 69.7279983,5.09811748 67.3689531,4.05837658 C65.0099078,3.01863569 74.7351109,16.2123175 74.7351109,16.2123175 Z" id="Path" fill="#F3C5DF"></path>
            <path d="M66.5591594,14.5984036 L84,17 C84,17 79.8145272,13.5891437 74.4778438,13.1176647 C69.1411603,12.6461856 66,13.7438478 66,13.7438478 L66.5591594,14.5984036 Z" id="Path" fill="#D7D7D7"></path>
            <circle id="Oval" fill="#EAEDF2" cx="27.5" cy="34.5" r="5.5"></circle>
            <path d="M23,34 C22.9999984,35.5927442 23.5761604,37.120125 24.6015106,38.2455361 C25.6268608,39.3709473 27.0172412,40.0020182 28.4662379,39.9996725 C30.2891989,40.0207621 31.9970069,39.0222362 33,37.3488599 C31.3903391,38.492137 29.3590582,38.6456622 27.6221865,37.7553178 C25.799084,36.9895933 24.2008552,35.6911045 23,34 L23,34 Z" id="Path" fill="#E2E4E8"></path>
            <path d="M30.1312377,30 C28.4819357,33.2206185 28.6428231,36.8889301 30.5698248,40 L32,39.6733068 L31.2658434,30.1593625 L30.1312377,30 Z" id="Path" fill="#D7D7D7"></path>
            <ellipse id="Oval" fill="#EAEDF2" cx="49" cy="31.5" rx="21" ry="17.5"></ellipse>
            <path d="M72,32.3774834 C72,42.6618102 62.4388,51 50.68,51 C41.8404,51 34.28,46.3108168 31,39.6335541 C31,39.6335541 42.0864,48.3240618 50.68,46.7554084 C61.6762,44.7421634 64.4642,32 64.4642,32 L72,32.3774834 Z" id="Path" fill="#E2E4E8"></path>
            <path d="M62,16.496405 C62,16.496405 46.7159773,-0.537649977 43.6421905,5.16963648 C40.6702972,10.6374564 48.8642316,26.8253961 50.885119,30.6488789 C50.527083,32.1178614 50.3448077,33.6198584 50.3416871,35.1269037 C50.3416871,39.916235 52.2267166,43.492269 55.3769235,46.0226324 L55.3769235,46.0226324 C55.6424366,47.0429978 56.0032962,48.0393246 56.4552962,49 L57.9836985,48.6328179 L62,16.496405 Z" id="Path" fill="#D7D7D7"></path>
            <path d="M92,35.8476571 C92,47.2387056 82.3388878,52 70.4959745,52 C58.6530612,52 49,47.2387056 49,35.8476571 C49,24.4566085 58.6611122,13 70.4959745,13 C82.3308369,13 92,24.4648035 92,35.8476571 Z" id="Path" fill="#EAEDF2"></path>
            <path d="M56,46.0521349 C56,46.0521349 57.9897631,55.2827804 63.7585336,53.8486629 C69.5273041,52.4145455 62.3394778,44 62.3394778,44 L56,46.0521349 Z" id="Path" fill="#EAEDF2"></path>
            <path d="M71.5546283,52 C83.3760486,52 93,47.2387056 93,35.8476571 C93,24.4566085 83.3760486,13 71.5546283,13 C71.5546283,13 68.3466445,26.8495482 77.361079,33.9546123 C86.3755134,41.0596764 71.5546283,52 71.5546283,52 Z" id="Path" fill="#E5E7EA"></path>
            <path d="M31.9545302,38 C31.9545302,38 18.7859666,39.2193623 20.0909594,44.2832107 C21.3959522,49.3470592 34.2165177,48.7800945 38.8907646,45.3161737 C43.5650116,41.8522528 31.9545302,38 31.9545302,38 Z" id="Path" fill="#EAEDF2"></path>
            <path d="M61,17.2856983 C61,17.2856983 46.7416997,0.538861077 43.6464815,6.14991479 C40.2637294,12.2632167 51.2576738,32 51.2576738,32 L61,17.2856983 Z" id="Path" fill="#EAEDF2"></path>
            <path d="M68.5154361,41.9999412 C67.7457162,42.0080941 67.094452,41.1676819 67.0021033,40.0470879 C66.9796125,39.7150731 67.1399496,39.4162768 67.3653032,39.3702467 C67.4749937,39.3516559 67.5851454,39.3989576 67.6706698,39.5013782 C67.7561942,39.6037987 67.8098091,39.7526175 67.819303,39.9139388 C67.8665329,40.4582817 68.2044304,40.8447662 68.5759694,40.7794079 C68.7569413,40.7550029 68.922982,40.621976 69.0347551,40.4118425 C69.1465283,40.201709 69.1940888,39.9331655 69.1661692,39.6698322 C69.1441444,39.3362798 69.3096583,39.0390844 69.5369358,39.0040867 C69.6454328,38.985414 69.7545109,39.0312281 69.8398144,39.1312993 C69.9251178,39.2313705 69.9795424,39.3773646 69.9909356,39.5366831 C70.0344299,40.1169528 69.9202498,40.6989844 69.6731357,41.1566636 C69.4232464,41.6100011 69.0617518,41.9009559 68.6667694,41.9666539 L68.5154361,41.9999412 Z" id="Path" fill="#2A263F"></path>
            <path d="M86.5188484,40.999941 C85.7464257,41.0081252 85.0928747,40.1644815 85.0002017,39.0395787 C84.993483,38.7200984 85.1553401,38.4467328 85.3719297,38.4117552 C85.5885194,38.3767777 85.7870414,38.5919448 85.8278642,38.9059177 C85.8456003,39.1695653 85.9361492,39.4110654 86.0784409,39.574223 C86.2193226,39.7322665 86.3952704,39.8077099 86.572001,39.785853 C86.7523373,39.7551577 86.916936,39.6204657 87.0294763,39.4114987 C87.1420166,39.2025316 87.1932483,38.9364653 87.1718665,38.6720108 C87.1555897,38.4571246 87.2187014,38.2458237 87.3374282,38.1177031 C87.4561549,37.9895825 87.6124592,37.9641069 87.7474628,38.0508726 C87.8824663,38.1376382 87.9756589,38.3234635 87.9919357,38.5383498 C88.076582,39.746955 87.4854198,40.8321547 86.6631198,40.9776641 L86.5188484,40.999941 Z" id="Path" fill="#2A263F"></path>
            <path d="M77.0832707,44 L76.858654,44 C75.1141308,43.8555578 75.0018224,42.8247654 75.0018224,42.7788065 C74.9914628,42.6843099 75.0255801,42.590204 75.0962666,42.5183013 C75.1669531,42.4463987 75.2680713,42.4029421 75.3761836,42.3980042 C75.4834815,42.390775 75.5896388,42.4213543 75.6711468,42.4829702 C75.7526549,42.5445862 75.8027874,42.6321541 75.8104426,42.7262821 C75.8104426,42.7262821 75.9002893,43.1990021 76.9335262,43.2909199 C77.5460293,43.3583273 78.110417,42.9907608 78.2138415,42.4570942 L78.2138415,41.3015563 L76.7163967,40.6778284 C76.5162007,40.5923393 76.4325163,40.3809963 76.5292161,40.2051084 C76.6270007,40.0262118 76.8710518,39.9499895 77.0757835,40.0344039 L79,40.8485329 L79,42.5687087 C78.8405189,43.3898103 78.0330862,43.9927497 77.0832707,44 Z" id="Path" fill="#2A263F"></path>
            <path d="M78.8973396,44 C77.9527515,43.9771436 77.1583282,43.3778565 77,42.5687087 L77,40.8485329 L78.9426943,40.0344039 C79.1493919,39.9499895 79.3957866,40.0262118 79.4945102,40.2051084 C79.5408905,40.2903982 79.5462288,40.388225 79.5093437,40.4769426 C79.4724587,40.5656601 79.3963913,40.6379542 79.297973,40.6778284 L77.7861487,41.3015563 L77.7861487,42.4570942 C77.8970198,42.9706043 78.4425809,43.3245668 79.0409629,43.2712232 C80.0841217,43.1793054 80.1748311,42.7131509 80.1748311,42.6934543 C80.2061554,42.5015361 80.4063449,42.3653327 80.6283784,42.3848731 C80.7347485,42.3915813 80.8336489,42.4348497 80.9031726,42.5050942 C80.9726963,42.5753386 81.0071045,42.6667607 80.9987754,42.7591098 C80.9987754,42.8050687 80.8853886,43.8358611 79.1241132,43.9803033 L78.8973396,44 Z" id="Path" fill="#2A263F"></path>
            <circle id="Oval" fill="#F3C5DF" cx="61" cy="42" r="2"></circle>
            <circle id="Oval" fill="#F3C5DF" cx="89" cy="42" r="2"></circle>
            <path d="M53.5210905,29 L58,21.0249755 C58,21.0249755 49.4267338,7.62330566 47.3380841,9.11604551 C45.2494344,10.6087854 53.5210905,29 53.5210905,29 Z" id="Path" fill="#F3C5DF"></path>
            <path d="M66,51 C66,51 59.9018692,50.587477 56,47 L56,47.4198895 C56,47.4198895 59.0140187,50.3222836 66,51 Z" id="Path" fill="#D7D7D7"></path>
            <path d="M12,50.8920677 C12.6150869,50.0644085 13.3106255,49.3264819 14.0720189,48.6937742 C14.825149,48.0329516 15.6409499,47.4795875 16.5026564,47.045054 C18.258012,46.1441758 20.1838757,45.8170575 22.0811688,46.0975136 C23.9757937,46.4070878 25.7828327,47.2411914 27.3568477,48.5326923 C28.1389075,49.1600719 28.8819726,49.8535682 29.5802834,50.6078056 L30.5764463,51.7827556 L31.5088548,52.9861318 L30.9191263,52.9861318 C31.4413204,52.21626 32.0114002,51.4940989 32.6245573,50.8257399 C33.2135912,50.1353338 33.847817,49.5016475 34.5212515,48.9306592 C35.1775036,48.3999942 35.8770155,47.9492195 36.609209,47.585152 C37.3714425,47.2189905 38.1791703,47.004506 39,46.9502999 C38.2103274,47.1424275 37.4462603,47.4611876 36.7287485,47.8978403 C36.0394365,48.3548282 35.3859915,48.8844145 34.7762692,49.4802326 C34.1639879,50.0675313 33.5837158,50.7005004 33.038961,51.3753133 C32.501476,52.0627896 31.9985378,52.7873351 31.5327627,53.5451806 L31.2618064,54 L30.9430342,53.5830823 C29.7490757,51.9696635 28.3826964,50.5489279 26.8786895,49.3570524 C26.1380943,48.7678238 25.3506765,48.2663853 24.527745,47.8599387 C23.7043505,47.4655751 22.8462304,47.1826898 21.9695986,47.0166278 C20.196497,46.7103568 18.3872385,46.9284044 16.701889,47.6514798 C14.9775047,48.3714362 13.3824574,49.4707584 12,50.8920677 L12,50.8920677 Z" id="Path" fill="#D4F6FC"></path>
            <path d="M72,62 C72.3273374,60.1058112 73.0796189,58.3082457 74.2015575,56.7394112 C74.7649764,55.9406696 75.4269882,55.2146146 76.17224,54.578084 C76.921963,53.9486006 77.7539981,53.4218834 78.6459001,53.0121413 C80.4554042,52.2093379 82.441721,51.8753327 84.4177737,52.0415831 C86.3465543,52.1806031 88.2358267,52.6526203 90,53.4362508 C88.1636567,52.9944636 86.2827563,52.7591694 84.3930371,52.734839 C82.5451991,52.7049662 80.7131138,53.0751968 79.0251947,53.8195805 C77.3513596,54.583666 75.8826101,55.7263432 74.7375172,57.1553647 C73.5648039,58.6122932 72.6401614,60.2486502 72,62 Z" id="Path" fill="#D4F6FC"></path>
            <path d="M97,49.3190385 C98.1542984,48.6732869 99.4302634,48.2571841 100.753001,48.0951538 C102.103925,47.8999504 103.483076,48.0059617 104.785218,48.4050986 C105.430468,48.6191295 106.04565,48.9101226 106.616551,49.2713546 C107.181341,49.6437185 107.694657,50.0843877 108.14403,50.5826597 C109.018113,51.5736917 109.65223,52.7412724 110,54 C109.359853,52.924665 108.575634,51.9359343 107.66772,51.0594978 C106.764848,50.233493 105.68551,49.6094963 104.506001,49.2316181 C103.31422,48.8704438 102.066198,48.7144306 100.818699,48.7706745 C99.5292145,48.8209525 98.2490084,49.0047897 97,49.3190385 Z" id="Path" fill="#D4F6FC"></path>
        </g>
        <g id="Group" transform="translate(7.000000, 0.000000)">
            <path d="M8.5,42 C13.1944204,42 17,38.1944204 17,33.5 C17,28.8055796 13.1944204,25 8.5,25 C3.80557963,25 0,28.8055796 0,33.5 C0,38.1944204 3.80557963,42 8.5,42 Z" id="Oval-Copy-26" stroke="#FFD787" stroke-dasharray="2,2"></path>
            <path d="M107.5,86 C116.060414,86 123,79.0604136 123,70.5 C123,61.9395864 116.060414,55 107.5,55 C98.9395864,55 92,61.9395864 92,70.5 C92,79.0604136 98.9395864,86 107.5,86 Z" id="Oval-Copy-15" stroke="#FFD787" stroke-dasharray="2,2"></path>
            <path d="M15.5,130 C24.0604136,130 31,123.060414 31,114.5 C31,105.939586 24.0604136,99 15.5,99 C6.93958638,99 0,105.939586 0,114.5 C0,123.060414 6.93958638,130 15.5,130 Z" id="Oval-Copy-27" stroke="#FFECC5" stroke-dasharray="2,2"></path>
            <path d="M48.5,19 C53.7467051,19 58,14.7467051 58,9.5 C58,4.25329488 53.7467051,0 48.5,0 C43.2532949,0 39,4.25329488 39,9.5 C39,14.7467051 43.2532949,19 48.5,19 Z" id="Oval-Copy-16" stroke="#FFECC5" stroke-dasharray="2,2"></path>
            <path d="M104,99 C108.418278,99 112,95.418278 112,91 C112,86.581722 108.418278,83 104,83 C99.581722,83 96,86.581722 96,91 C96,95.418278 99.581722,99 104,99 Z" id="Oval-Copy-28" fill="#FFD787"></path>
        </g>
        <g id="Mesa-de-trabajo-13-copia-2" transform="translate(8.000000, 42.000000)" fill-rule="nonzero">
            <path d="M46.3615555,40.6606915 L0,11 C0,11 12.8954037,37.0743158 29.3654134,53.013222 L29.3654134,53.013222 C31.3564637,54.8746289 36.3753548,54.0413813 40.9403277,51.0299952 C45.7786832,47.8383157 47.945111,43.4381836 46.6143054,41.0553877 L46.3615555,40.6606915 Z" id="Path" fill="#71A854"></path>
            <path d="M41.4889894,37.7633817 L0,11 C0,11 12.6030409,32.4911535 32.1736983,47.7763054 C32.1736983,47.7763054 30.2131135,49.9598986 30.6655562,50.5632598 C31.1179988,51.1666211 33.9231431,51.8130796 39.4379161,47.5368764 C44.9526891,43.2606731 42.4190103,39.4824824 42.4190103,39.4824824 C42.4190103,39.4824824 40.9661668,38.2182969 41.4889894,37.7633817 Z" id="Path" fill="#B1CE93"></path>
            <path d="M0,11 C0,11 8.76668906,22.2174605 18.0109214,32.2193772 C26.6921553,41.6135218 36.9769293,49.2657058 37.3891246,48.9929263 C38.0275245,48.5813642 38.7061386,48.0836612 39.4400472,47.514174 C43.5619997,44.3221748 43.1849918,41.4077407 42.7325824,40.1395551 C42.5918328,39.7088506 0,11 0,11 Z" id="Path" fill="#B5D59A"></path>
            <polygon id="Path" fill="#EEFFD1" points="4.28939828 18 5 16 3 16.5311203"></polygon>
            <polygon id="Path" fill="#EEFFD1" points="7.28735632 24 8 22 6 22.5394191"></polygon>
            <polygon id="Path" fill="#EEFFD1" points="10.2931034 27 11 25 9 25.5311203"></polygon>
            <polygon id="Path" fill="#EEFFD1" points="12.2931034 29 13 27 11 27.5394191"></polygon>
            <polygon id="Path" fill="#EEFFD1" points="17.2893983 35 18 33 16 33.5311203"></polygon>
            <polygon id="Path" fill="#EEFFD1" points="21.2931034 38 22 36 20 36.5311203"></polygon>
            <polygon id="Path" fill="#EEFFD1" points="23.2931034 43 24 41 22 41.5311203"></polygon>
            <polygon id="Path" fill="#EEFFD1" points="28.2893983 45 29 43 27 43.5311203"></polygon>
            <polygon id="Path" fill="#EEFFD1" points="13 17.296 11 18 11.3813559 16"></polygon>
            <polygon id="Path" fill="#EEFFD1" points="11 17.288 9 18 9.37288136 16"></polygon>
            <polygon id="Path" fill="#EEFFD1" points="5 12.288 3 13 3.38135593 11"></polygon>
            <polygon id="Path" fill="#EEFFD1" points="18 23.2908367 16 24 16.3813559 22"></polygon>
            <polygon id="Path" fill="#EEFFD1" points="22 26.2908367 20 27 20.3813559 25"></polygon>
            <polygon id="Path" fill="#EEFFD1" points="24 28.2908367 22 29 22.3813559 27"></polygon>
            <polygon id="Path" fill="#EEFFD1" points="29 31.2908367 27 32 27.3728814 30"></polygon>
            <polygon id="Path" fill="#EEFFD1" points="35 34.2908367 33 35 33.3813559 33"></polygon>
            <polygon id="Path" fill="#EEFFD1" points="40 37.2908367 38 38 38.3728814 36"></polygon>
            <path d="M29.3545313,54 C12.8751563,37.6867316 0,11 0,11 L0,11 C0,11 12.931875,33.3827418 33,49.3020181 C31.9776796,49.6756405 31.1027878,50.3508679 30.4992188,51.2320807 C30.0060447,52.1077879 29.6218074,53.0368954 29.3545313,54 Z" id="Path" fill="#95C17C"></path>
            <path d="M54,47.7755875 L30.0126202,0 C30.0126202,0 26.6606258,28.43958 32.1538785,50.0139326 L32.1538785,50.0139326 C32.8517701,52.5623516 37.7264371,54.2968268 43.420598,53.9576836 C49.4584176,53.5943159 53.8308142,50.9053948 53.9947129,48.2261635 L54,47.7755875 Z" id="Path" fill="#71A854"></path>
            <path d="M54,44.2340542 L32.0291585,0 C32.0291585,0 31.0851401,25.0993452 39.9399271,48.2788689 C39.9399271,48.2788689 36.933835,49.2021418 37.0182166,49.9690934 C37.1025981,50.736045 39.2226841,52.6998318 46.6166159,51.7423636 C54.0105477,50.7848954 53.8734277,46.2076112 53.8734277,46.2076112 C53.8734277,46.2076112 53.2722093,44.3659504 54,44.2340542 Z" id="Path" fill="#B1CE93"></path>
            <path d="M32,0 C32,0 33.4837198,14.2013524 36.1042464,27.582269 C38.5646594,40.1525169 43.4854854,52 44.0352089,52 C44.8517885,51.9658152 45.753762,51.8730278 46.7518037,51.7460556 C52.3344328,51.0281743 53.6900616,48.298272 53.9996147,46.9601803 C54.1063571,46.5060105 32,0 32,0 Z" id="Path" fill="#B5D59A"></path>
            <polygon id="Path" fill="#EEFFD1" points="30.6102719 11 32 9.94029851 30 9"></polygon>
            <polygon id="Path" fill="#EEFFD1" points="33.6084337 16 35 14.9328358 33 14"></polygon>
            <polygon id="Path" fill="#EEFFD1" points="33.6102719 22 35 20.9402985 33 20"></polygon>
            <polygon id="Path" fill="#EEFFD1" points="33.6102719 24 35 22.9402985 33 22"></polygon>
            <polygon id="Path" fill="#EEFFD1" points="33.6102719 29 35 27.9402985 33 27"></polygon>
            <polygon id="Path" fill="#EEFFD1" points="36.6102719 35 38 33.9402985 36 33"></polygon>
            <polygon id="Path" fill="#EEFFD1" points="36.6102719 40 38 38.9363296 36 38"></polygon>
            <polygon id="Path" fill="#EEFFD1" points="38.6042296 49 40 47.9328358 38 47"></polygon>
            <polygon id="Path" fill="#EEFFD1" points="38 16 36 15.6118143 37.3548387 14"></polygon>
            <polygon id="Path" fill="#EEFFD1" points="38 11 36 10.6134454 37.3548387 9"></polygon>
            <polygon id="Path" fill="#EEFFD1" points="35 5 33 4.61181435 34.3603239 3"></polygon>
            <polygon id="Path" fill="#EEFFD1" points="40 18 38 17.6134454 39.3548387 16"></polygon>
            <polygon id="Path" fill="#EEFFD1" points="43 24 41 23.6118143 42.3548387 22"></polygon>
            <polygon id="Path" fill="#EEFFD1" points="43 29 41 28.6118143 42.3603239 27"></polygon>
            <polygon id="Path" fill="#EEFFD1" points="45 35 43 34.6118143 44.3548387 33"></polygon>
            <polygon id="Path" fill="#EEFFD1" points="49 38 47 37.6118143 48.3548387 36"></polygon>
            <polygon id="Path" fill="#EEFFD1" points="51 45 49 44.6118143 50.3548387 43"></polygon>
            <path d="M32.1739071,52 C26.6457697,29.5689238 30.0190509,0 30.0190509,0 L30.0190509,0 C30.0190509,0 29.0666576,25.8816236 38,49.78359 C36.8904519,49.5952319 35.74647,49.7396401 34.7278109,50.1966483 C33.8034956,50.6990481 32.9460848,51.3044795 32.1739071,52 Z" id="Path" fill="#95C17C"></path>
            <ellipse id="Oval" fill="#F0F1F3" transform="translate(24.437982, 44.481285) rotate(-54.690000) translate(-24.437982, -44.481285) " cx="24.4379823" cy="44.4812852" rx="1.97465336" ry="6.05143193"></ellipse>
            <ellipse id="Oval" fill="#F0F1F3" transform="translate(30.261676, 40.803332) rotate(-10.270000) translate(-30.261676, -40.803332) " cx="30.2616759" cy="40.8033323" rx="1.98401191" ry="6.02250311"></ellipse>
            <ellipse id="Oval" fill="#F0F1F3" transform="translate(38.067281, 43.048406) rotate(-47.350000) translate(-38.067281, -43.048406) " cx="38.0672807" cy="43.0484056" rx="6.04199555" ry="1.97775395"></ellipse>
            <ellipse id="Oval" fill="#F0F1F3" transform="translate(40.999932, 49.216566) rotate(-3.140000) translate(-40.999932, -49.216566) " cx="40.9999322" cy="49.2165664" rx="6.06652981" ry="1.96959526"></ellipse>
            <ellipse id="Oval" fill="#F0F1F3" transform="translate(38.890600, 55.529414) rotate(-50.110000) translate(-38.890600, -55.529414) " cx="38.8906005" cy="55.5294139" rx="1.97581577" ry="6.04791081"></ellipse>
            <ellipse id="Oval" fill="#F0F1F3" transform="translate(32.988835, 58.701648) rotate(-6.930000) translate(-32.988835, -58.701648) " cx="32.9888348" cy="58.7016478" rx="1.98426016" ry="6.02171695"></ellipse>
            <ellipse id="Oval" fill="#F0F1F3" transform="translate(25.644519, 56.397910) rotate(-47.842138) translate(-25.644519, -56.397910) " cx="25.6445189" cy="56.3979098" rx="6.03102327" ry="1.97441684"></ellipse>
            <ellipse id="Oval" fill="#F0F1F3" transform="translate(22.821856, 50.752081) rotate(-6.590000) translate(-22.821856, -50.752081) " cx="22.8218557" cy="50.7520811" rx="6.06606614" ry="1.9697524"></ellipse>
            <ellipse id="Oval" fill="#FEFFFF" cx="33.5" cy="41.5" rx="2.5" ry="5.5"></ellipse>
            <ellipse id="Oval" fill="#F0F0F2" cx="31" cy="42.5" rx="1" ry="2.5"></ellipse>
            <ellipse id="Oval" fill="#FEFFFF" transform="translate(27.702590, 42.263424) rotate(-29.120000) translate(-27.702590, -42.263424) " cx="27.7025898" cy="42.2634239" rx="1.98101684" ry="5.50309213"></ellipse>
            <ellipse id="Oval" fill="#F0F0F2" transform="translate(28.916356, 44.425003) rotate(-29.120000) translate(-28.916356, -44.425003) " cx="28.9163558" cy="44.425003" rx="1" ry="3.02572057"></ellipse>
            <ellipse id="Oval" fill="#FEFFFF" transform="translate(35.837116, 42.138697) rotate(-62.620000) translate(-35.837116, -42.138697) " cx="35.8371158" cy="42.138697" rx="5.50203813" ry="1.98138839"></ellipse>
            <ellipse id="Oval" fill="#F0F0F2" transform="translate(34.691909, 44.337206) rotate(-62.620000) translate(-34.691909, -44.337206) " cx="34.6919086" cy="44.3372064" rx="3.02514113" ry="1"></ellipse>
            <ellipse id="Oval" fill="#FEFFFF" transform="translate(39.940683, 46.754484) rotate(-20.310000) translate(-39.940683, -46.754484) " cx="39.9406833" cy="46.7544843" rx="5.52983693" ry="1.97139404"></ellipse>
            <ellipse id="Oval" fill="#F0F0F2" transform="translate(37.609344, 47.612596) rotate(-20.310000) translate(-37.609344, -47.612596) " cx="37.6093442" cy="47.6125961" rx="3.04042583" ry="1"></ellipse>
            <ellipse id="Oval" fill="#FEFFFF" transform="translate(39.643303, 53.407812) rotate(-65.746080) translate(-39.643303, -53.407812) " cx="39.643303" cy="53.407812" rx="1.96837892" ry="5.51731627"></ellipse>
            <ellipse id="Oval" fill="#F0F0F2" transform="translate(37.453268, 52.178401) rotate(-65.900000) translate(-37.453268, -52.178401) " cx="37.4532683" cy="52.1784012" rx="1" ry="3.03936765"></ellipse>
            <ellipse id="Oval" fill="#FEFFFF" transform="translate(35.140415, 57.607250) rotate(-22.250000) translate(-35.140415, -57.607250) " cx="35.1404153" cy="57.6072496" rx="1.98238522" ry="5.49920222"></ellipse>
            <ellipse id="Oval" fill="#F0F0F2" transform="translate(34.198457, 55.313297) rotate(-22.250000) translate(-34.198457, -55.313297) " cx="34.1984571" cy="55.3132971" rx="1" ry="3.0235821"></ellipse>
            <ellipse id="Oval" fill="#FEFFFF" transform="translate(28.283591, 57.464930) rotate(-65.190000) translate(-28.283591, -57.464930) " cx="28.2835906" cy="57.4649302" rx="5.50056343" ry="1.98190728"></ellipse>
            <ellipse id="Oval" fill="#F0F0F2" transform="translate(29.473413, 55.165402) rotate(-65.224859) translate(-29.473413, -55.165402) " cx="29.4734129" cy="55.1654023" rx="3.0311169" ry="1"></ellipse>
            <ellipse id="Oval" fill="#FEFFFF" transform="translate(23.882871, 52.818850) rotate(-21.370000) translate(-23.882871, -52.818850) " cx="23.8828715" cy="52.8188502" rx="5.52932518" ry="1.97158171"></ellipse>
            <ellipse id="Oval" fill="#F0F0F2" transform="translate(26.204994, 51.919716) rotate(-21.370000) translate(-26.204994, -51.919716) " cx="26.2049945" cy="51.9197158" rx="3.04014441" ry="1"></ellipse>
            <ellipse id="Oval" fill="#FEFFFF" transform="translate(23.869068, 46.635647) rotate(-68.810000) translate(-23.869068, -46.635647) " cx="23.8690683" cy="46.6356469" rx="1.9715493" ry="5.52941358"></ellipse>
            <ellipse id="Oval" fill="#F0F0F2" transform="translate(26.194477, 47.525418) rotate(-68.810000) translate(-26.194477, -47.525418) " cx="26.1944767" cy="47.5254182" rx="1" ry="3.04019302"></ellipse>
            <circle id="Oval" fill="#FACD36" cx="31.5" cy="49.5" r="4.5"></circle>
            <circle id="Oval" fill="#F2AD3C" cx="31" cy="50" r="1"></circle>
            <ellipse id="Oval" fill="#F0F1F3" transform="translate(46.105436, 34.839020) rotate(-54.690000) translate(-46.105436, -34.839020) " cx="46.1054359" cy="34.8390205" rx="1.6071621" ry="4.92661219"></ellipse>
            <ellipse id="Oval" fill="#F0F1F3" transform="translate(50.845186, 31.840005) rotate(-10.270000) translate(-50.845186, -31.840005) " cx="50.8451855" cy="31.8400049" rx="1.61477893" ry="4.90306057"></ellipse>
            <ellipse id="Oval" fill="#F0F1F3" transform="translate(57.208473, 33.676400) rotate(-47.350000) translate(-57.208473, -33.676400) " cx="57.2084734" cy="33.6764003" rx="4.91892982" ry="1.60968566"></ellipse>
            <ellipse id="Oval" fill="#F0F1F3" transform="translate(59.595834, 38.691446) rotate(-3.140000) translate(-59.595834, -38.691446) " cx="59.5958337" cy="38.6914464" rx="4.93890373" ry="1.60304527"></ellipse>
            <ellipse id="Oval" fill="#F0F1F3" transform="translate(57.876444, 43.840910) rotate(-50.110000) translate(-57.876444, -43.840910) " cx="57.8764437" cy="43.8409101" rx="1.60810818" ry="4.92374557"></ellipse>
            <ellipse id="Oval" fill="#F0F1F3" transform="translate(53.069882, 46.421640) rotate(-6.930000) translate(-53.069882, -46.421640) " cx="53.0698819" cy="46.4216401" rx="1.61498098" ry="4.90242054"></ellipse>
            <ellipse id="Oval" fill="#F0F1F3" transform="translate(47.180081, 44.575972) rotate(-47.840000) translate(-47.180081, -44.575972) " cx="47.180081" cy="44.5759724" rx="4.91861353" ry="1.60978875"></ellipse>
            <ellipse id="Oval" fill="#F0F1F3" transform="translate(44.787831, 39.944718) rotate(-6.590000) translate(-44.787831, -39.944718) " cx="44.7878308" cy="39.9447183" rx="4.93852625" ry="1.60317318"></ellipse>
            <ellipse id="Oval" fill="#FEFFFF" cx="53" cy="31.5" rx="1" ry="4.5"></ellipse>
            <ellipse id="Oval" fill="#F0F0F2" cx="53" cy="35.5" rx="1" ry="2.5"></ellipse>
            <ellipse id="Oval" fill="#FEFFFF" transform="translate(48.766630, 33.032827) rotate(-29.120000) translate(-48.766630, -33.032827) " cx="48.7666302" cy="33.032827" rx="1.61234128" ry="4.47983034"></ellipse>
            <ellipse id="Oval" fill="#F0F0F2" transform="translate(49.751040, 34.793050) rotate(-29.120000) translate(-49.751040, -34.793050) " cx="49.7510405" cy="34.7930504" rx="1" ry="2.46268195"></ellipse>
            <ellipse id="Oval" fill="#FEFFFF" transform="translate(55.385452, 32.932659) rotate(-62.620000) translate(-55.385452, -32.932659) " cx="55.385452" cy="32.9326586" rx="4.47897232" ry="1.61264368"></ellipse>
            <ellipse id="Oval" fill="#F0F0F2" transform="translate(54.455164, 34.717212) rotate(-62.620000) translate(-54.455164, -34.717212) " cx="54.4551643" cy="34.7172123" rx="2.46221034" ry="1"></ellipse>
            <ellipse id="Oval" fill="#FEFFFF" transform="translate(58.736888, 36.694050) rotate(-20.310000) translate(-58.736888, -36.694050) " cx="58.7368885" cy="36.6940498" rx="4.50160212" ry="1.60450931"></ellipse>
            <ellipse id="Oval" fill="#F0F0F2" transform="translate(56.829708, 37.390170) rotate(-20.310000) translate(-56.829708, -37.390170) " cx="56.8297079" cy="37.3901699" rx="2.47465079" ry="1"></ellipse>
            <ellipse id="Oval" fill="#FEFFFF" transform="translate(58.556024, 41.935948) rotate(-65.900000) translate(-58.556024, -41.935948) " cx="58.5560243" cy="41.9359484" rx="1.60508306" ry="4.50003565"></ellipse>
            <ellipse id="Oval" fill="#F0F0F2" transform="translate(56.705059, 41.113069) rotate(-65.900000) translate(-56.705059, -41.113069) " cx="56.7050587" cy="41.1130686" rx="1" ry="2.47378953"></ellipse>
            <ellipse id="Oval" fill="#FEFFFF" transform="translate(54.821355, 45.528641) rotate(-22.250000) translate(-54.821355, -45.528641) " cx="54.821355" cy="45.5286411" rx="1.61345499" ry="4.47666373"></ellipse>
            <ellipse id="Oval" fill="#F0F0F2" transform="translate(54.053035, 43.664230) rotate(-22.250000) translate(-54.053035, -43.664230) " cx="54.0530348" cy="43.6642296" rx="1" ry="2.46094142"></ellipse>
            <ellipse id="Oval" fill="#FEFFFF" transform="translate(49.236459, 45.412849) rotate(-65.190000) translate(-49.236459, -45.412849) " cx="49.236459" cy="45.4128494" rx="4.47777183" ry="1.61306599"></ellipse>
            <ellipse id="Oval" fill="#F0F0F2" transform="translate(50.088901, 43.585190) rotate(-65.190000) translate(-50.088901, -43.585190) " cx="50.0889007" cy="43.5851903" rx="2.46155048" ry="1"></ellipse>
            <ellipse id="Oval" fill="#FEFFFF" transform="translate(45.652725, 41.629132) rotate(-21.370000) translate(-45.652725, -41.629132) " cx="45.652725" cy="41.6291316" rx="4.50118553" ry="1.60466205"></ellipse>
            <ellipse id="Oval" fill="#F0F0F2" transform="translate(47.541546, 40.893392) rotate(-21.370000) translate(-47.541546, -40.893392) " cx="47.5415461" cy="40.8933916" rx="2.47442175" ry="1"></ellipse>
            <ellipse id="Oval" fill="#FEFFFF" transform="translate(45.643576, 36.594735) rotate(-68.810000) translate(-45.643576, -36.594735) " cx="45.6435764" cy="36.5947346" rx="1.60463568" ry="4.50125749"></ellipse>
            <ellipse id="Oval" fill="#F0F0F2" transform="translate(47.538065, 37.326944) rotate(-68.810000) translate(-47.538065, -37.326944) " cx="47.5380654" cy="37.3269437" rx="1" ry="2.47446131"></ellipse>
            <circle id="Oval" fill="#FACD36" cx="53.5" cy="39.5" r="4.5"></circle>
            <circle id="Oval" fill="#F2AD3C" cx="53" cy="39" r="1"></circle>
            <ellipse id="Oval" fill="#F0F1F3" transform="translate(43.450512, 50.318648) rotate(-54.690000) translate(-43.450512, -50.318648) " cx="43.4505122" cy="50.3186482" rx="1.33766849" ry="4.10141693"></ellipse>
            <ellipse id="Oval" fill="#F0F1F3" transform="translate(47.394422, 47.819199) rotate(-10.270000) translate(-47.394422, -47.819199) " cx="47.3944224" cy="47.8191992" rx="1.34400808" ry="4.08181014"></ellipse>
            <ellipse id="Oval" fill="#F0F1F3" transform="translate(52.686781, 49.342779) rotate(-47.350000) translate(-52.686781, -49.342779) " cx="52.6867806" cy="49.3427789" rx="4.09502133" ry="1.3397689"></ellipse>
            <ellipse id="Oval" fill="#F0F1F3" transform="translate(54.674989, 53.520078) rotate(-3.140000) translate(-54.674989, -53.520078) " cx="54.6749887" cy="53.5200777" rx="4.11164967" ry="1.33424195"></ellipse>
            <ellipse id="Oval" fill="#F0F1F3" transform="translate(53.244080, 57.806035) rotate(-50.110000) translate(-53.244080, -57.806035) " cx="53.2440802" cy="57.8060355" rx="1.33845593" ry="4.09903046"></ellipse>
            <ellipse id="Oval" fill="#F0F1F3" transform="translate(49.247525, 59.951415) rotate(-6.930000) translate(-49.247525, -59.951415) " cx="49.2475245" cy="59.9514148" rx="1.34417625" ry="4.08127732"></ellipse>
            <ellipse id="Oval" fill="#F0F1F3" transform="translate(44.345413, 58.416964) rotate(-47.840000) translate(-44.345413, -58.416964) " cx="44.3454128" cy="58.4169638" rx="4.09475802" ry="1.3398547"></ellipse>
            <ellipse id="Oval" fill="#F0F1F3" transform="translate(42.362719, 54.561490) rotate(-6.590000) translate(-42.362719, -54.561490) " cx="42.3627191" cy="54.5614904" rx="4.11133541" ry="1.33434841"></ellipse>
            <ellipse id="Oval" fill="#FEFFFF" cx="48" cy="47.5" rx="1" ry="4.5"></ellipse>
            <ellipse id="Oval" fill="#F0F0F2" cx="48" cy="49.5" rx="1" ry="2.5"></ellipse>
            <ellipse id="Oval" fill="#FEFFFF" transform="translate(45.668621, 48.813453) rotate(-29.120000) translate(-45.668621, -48.813453) " cx="45.6686208" cy="48.8134535" rx="1.34197924" ry="3.73074395"></ellipse>
            <ellipse id="Oval" fill="#F0F0F2" transform="translate(46.483698, 50.276808) rotate(-29.120000) translate(-46.483698, -50.276808) " cx="46.4836985" cy="50.2768078" rx="1" ry="2.05141896"></ellipse>
            <ellipse id="Oval" fill="#FEFFFF" transform="translate(51.178280, 48.728359) rotate(-62.620000) translate(-51.178280, -48.728359) " cx="51.1782802" cy="48.7283592" rx="3.73002941" ry="1.34223092"></ellipse>
            <ellipse id="Oval" fill="#F0F0F2" transform="translate(50.403904, 50.210255) rotate(-62.620000) translate(-50.403904, -50.210255) " cx="50.4039036" cy="50.2102553" rx="2.0510261" ry="1"></ellipse>
            <ellipse id="Oval" fill="#FEFFFF" transform="translate(53.961819, 51.856256) rotate(-20.310000) translate(-53.961819, -51.856256) " cx="53.9618189" cy="51.8562561" rx="3.74887521" ry="1.33546053"></ellipse>
            <ellipse id="Oval" fill="#F0F0F2" transform="translate(52.377809, 52.439631) rotate(-20.310000) translate(-52.377809, -52.439631) " cx="52.3778087" cy="52.4396314" rx="2.06138903" ry="1"></ellipse>
            <ellipse id="Oval" fill="#FEFFFF" transform="translate(53.813940, 56.219377) rotate(-65.900000) translate(-53.813940, -56.219377) " cx="53.8139398" cy="56.219377" rx="1.33593808" ry="3.74757067"></ellipse>
            <ellipse id="Oval" fill="#F0F0F2" transform="translate(52.274601, 55.532971) rotate(-65.900000) translate(-52.274601, -55.532971) " cx="52.2746009" cy="55.5329713" rx="1" ry="2.06067159"></ellipse>
            <ellipse id="Oval" fill="#FEFFFF" transform="translate(50.705110, 59.208639) rotate(-22.250000) translate(-50.705110, -59.208639) " cx="50.7051099" cy="59.2086394" rx="1.34290617" ry="3.72810684"></ellipse>
            <ellipse id="Oval" fill="#F0F0F2" transform="translate(50.066285, 57.654027) rotate(-22.250000) translate(-50.066285, -57.654027) " cx="50.0662853" cy="57.6540273" rx="1" ry="2.04996909"></ellipse>
            <ellipse id="Oval" fill="#FEFFFF" transform="translate(46.058126, 59.116888) rotate(-65.190000) translate(-46.058126, -59.116888) " cx="46.0581262" cy="59.116888" rx="3.72902965" ry="1.34258242"></ellipse>
            <ellipse id="Oval" fill="#F0F0F2" transform="translate(46.763377, 57.593895) rotate(-65.190000) translate(-46.763377, -57.593895) " cx="46.7633771" cy="57.5938945" rx="2.05047644" ry="1"></ellipse>
            <ellipse id="Oval" fill="#FEFFFF" transform="translate(43.080850, 55.962962) rotate(-21.370000) translate(-43.080850, -55.962962) " cx="43.0808502" cy="55.9629621" rx="3.74852828" ry="1.33558766"></ellipse>
            <ellipse id="Oval" fill="#F0F0F2" transform="translate(44.649315, 55.353790) rotate(-21.370000) translate(-44.649315, -55.353790) " cx="44.6493152" cy="55.3537899" rx="2.06119823" ry="1"></ellipse>
            <ellipse id="Oval" fill="#FEFFFF" transform="translate(43.072539, 51.777856) rotate(-68.810000) translate(-43.072539, -51.777856) " cx="43.0725386" cy="51.7778564" rx="1.33556571" ry="3.7485882"></ellipse>
            <ellipse id="Oval" fill="#F0F0F2" transform="translate(44.645102, 52.384341) rotate(-68.810000) translate(-44.645102, -52.384341) " cx="44.6451023" cy="52.3843406" rx="1" ry="2.06123119"></ellipse>
            <circle id="Oval" fill="#FACD36" cx="49" cy="53" r="3"></circle>
            <circle id="Oval" fill="#F2AD3C" cx="48.5" cy="53.5" r="1.5"></circle>
        </g>
    </g>
</svg>