<?xml version="1.0" encoding="UTF-8"?>
<svg width="95px" height="95px" viewBox="0 0 95 95" version="1.1" xmlns="http://www.w3.org/2000/svg" xmlns:xlink="http://www.w3.org/1999/xlink">
    <!-- Generator: Sketch 53 (72520) - https://sketchapp.com -->
    <title>Group 6</title>
    <desc>Created with Sketch.</desc>
    <defs>
        <circle id="path-1" cx="43.5" cy="43.5" r="43.5"></circle>
        <filter x="-8.0%" y="-5.7%" width="116.1%" height="116.1%" filterUnits="objectBoundingBox" id="filter-2">
            <feOffset dx="0" dy="2" in="SourceAlpha" result="shadowOffsetOuter1"></feOffset>
            <feGaussianBlur stdDeviation="2" in="shadowOffsetOuter1" result="shadowBlurOuter1"></feGaussianBlur>
            <feColorMatrix values="0 0 0 0 1   0 0 0 0 0.917647059   0 0 0 0 0.529411765  0 0 0 1 0" type="matrix" in="shadowBlurOuter1"></feColorMatrix>
        </filter>
    </defs>
    <g id="Page-1" stroke="none" stroke-width="1" fill="none" fill-rule="evenodd">
        <g id="Detalle-pañales-alto-desempeño_Pañal-recien-nacido" transform="translate(-389.000000, -1022.000000)">
            <g id="pañal-composición" transform="translate(-63.000000, 660.000000)">
                <g id="Group-6" transform="translate(456.000000, 364.000000)">
                    <g id="Oval-Copy-19">
                        <use fill="black" fill-opacity="1" filter="url(#filter-2)" xlink:href="#path-1"></use>
                        <use fill="#FFFFFF" fill-rule="evenodd" xlink:href="#path-1"></use>
                    </g>
                    <g id="Mesa-de-trabajo-8-copia" transform="translate(4.000000, 5.000000)" fill-rule="nonzero">
                        <polygon id="Path" fill="#F2B630" points="37.0529067 46.9310345 76 50.6002216 37.3064474 56.5949707 5 51"></polygon>
                        <polygon id="Path" fill="#2A263F" points="35 55.9310345 34 55.9310345 34.3230088 0.931034483 34.6769912 0.931034483"></polygon>
                        <path d="M23.8398451,25.9310345 L46.2219498,26.3481773 C46.2219498,26.3481773 41.0446987,39.1996059 47,47.0338916 L26.0803956,47.9310345 C26.0803956,47.9310345 16.3342935,41.3424631 23.8398451,25.9310345 Z" id="Path" fill="#BEEE9F"></path>
                        <path d="M31.7995566,47.9310345 L46,47.264545 C40.4527815,39.2491317 45.2752652,26.1005801 45.2752652,26.1005801 L36.8672513,25.9310345 C36.8672513,25.9310345 34.86197,26.7202984 34.6875977,30.4444546 C34.5132254,34.1686109 35.472273,36.3843962 33.2817211,35.6243643 C31.0911692,34.8643324 28.0560015,35.6711355 27.3421649,38.0973911 C25.4840102,44.393963 31.7995566,47.9310345 31.7995566,47.9310345 Z" id="Path" fill="#A5DA83"></path>
                        <path d="M27.4733374,24.9310345 L46,24.9310345 C46,24.9310345 41.9645457,22.2850133 44.3607746,9.93103448 L26.5740401,10.3602779 C26.5740401,10.3602779 22.4930517,18.5747036 27.4733374,24.9310345 Z" id="Path" fill="#FFFFFF"></path>
                        <path d="M28.8179929,23.9310345 C26.7101045,19.9916561 26.4180884,15.1742459 28.0315579,10.9571599 L29.1711823,10.9310345 C29.1711823,10.9937354 26.778913,17.7811149 30,23.9310345 L28.8179929,23.9310345 Z" id="Path" fill="#FC992D"></path>
                        <path d="M31.8039321,23.9310345 C29.6892252,19.9863565 29.4178469,15.1643974 31.0740482,10.9621598 L32.1900643,10.9310345 C32.1618107,10.9932851 29.7790928,17.7993505 33,23.8999092 L31.8039321,23.9310345 Z" id="Path" fill="#FC992D"></path>
                        <path d="M34.7978522,23.9310345 C32.6635474,19.9746377 32.415003,15.1463071 34.1299923,10.9569 L35.2701246,10.9310345 C35.241502,10.9931117 32.7370274,17.847469 36,23.9310345 L34.7978522,23.9310345 Z" id="Path" fill="#FC992D"></path>
                        <path d="M37.7588074,23.9310345 C35.5989539,19.9531818 35.417727,15.1035747 37.2739665,10.9567567 L38.4521298,10.9310345 C38.4230394,10.9927678 35.6836885,17.8863174 39,23.9310345 L37.7588074,23.9310345 Z" id="Path" fill="#FC992D"></path>
                        <path d="M41.7677334,24.9310345 C38.1488634,17.3867606 41.1881297,10.2734194 41.3050246,9.96645361 L42.4837144,9.93103448 C42.4544907,10.0077759 39.6684966,17.9888857 43,24.9251313 L41.7677334,24.9310345 Z" id="Path" fill="#FC992D"></path>
                        <path d="M20.1564832,58.9310345 C16.9707532,59.7366786 13.8517092,60.7875056 10.8270892,62.0741703 C6.09559467,64.1119049 2.03764229,61.3986473 0.41223475,65.3289628 C-1.21317279,69.2592783 2.03764229,70.5935757 8.9344914,71.5649889 C15.8313405,72.5364021 9.74162871,73.7311287 12.3133352,75.3613164 C14.8850416,76.9915041 23.128975,76.7179452 31.918422,76.7179452 C40.7078689,76.7179452 51.1171569,75.9363484 58.8211433,76.7179452 C66.5251298,77.499542 70.989434,76.1596617 70.449487,72.2237634 C69.90954,68.2878651 74.7801961,69.1029589 77.8862831,67.1992124 C80.9923701,65.2954658 83.5640766,58.1159406 63.4134763,60.2876633 C43.262876,62.4593859 20.1564832,58.9310345 20.1564832,58.9310345 Z" id="Path" fill="#B5F5FA"></path>
                        <path d="M58.7929574,57.4266601 C57.5789348,62.7683299 51.3629056,65.9960623 44.9134104,64.6095012 C38.4639152,63.2229401 31.932707,58.358611 33.1467296,52.9771628 C34.3607523,47.5957146 42.8472373,43.8338152 49.3025691,45.2203763 C55.7579009,46.6069374 60.0069801,52.073625 58.7929574,57.4266601 Z" id="Path" fill="#D2A185"></path>
                        <polygon id="Path" fill="#F4D72F" points="55 72 37 56.4810496 76 50.6002216"></polygon>
                        <path d="M38,40.9124156 C38,40.9124156 34.9549477,36.8477287 31.4032571,38.3221739 C27.8515666,39.7966192 31.4032571,47.8690647 38,48 L38,40.9124156 Z" id="Path" fill="#D2A185"></path>
                        <path d="M36.6871615,39 L38,40.7532468 L38,48 C37.6050764,47.9919313 37.211503,47.9293262 36.8243238,47.812987 C36.8243238,47.812987 35.0647284,44.4058442 36.6871615,39 Z" id="Path" fill="#BC8F74"></path>
                        <path d="M54,49.8297187 C54,49.8297187 56.2689491,55.9748541 60.3807277,54.8661956 C64.4925063,53.7575372 63.7011411,48.7949708 58.4438199,47 L54,49.8297187 Z" id="Path" fill="#BC8F74"></path>
                        <path d="M60.991539,45.0524833 C60.4961311,51.1819177 53.4824903,54.2027749 46.3797875,52.4264451 C39.2770846,50.6501153 35.9650876,47.4921956 37.28432,41.1818387 C38.6035525,34.8714818 61.5036461,38.6105464 60.991539,45.0524833 Z" id="Path" fill="#9E745F"></path>
                        <path d="M61.5513217,31.3387021 C63.6550045,30.2480109 65.8393766,31.4532247 67.1361675,33.6782349 C68.4329583,35.9032451 68.3695596,38.2973124 66.2601132,39.3989106 C64.1506668,40.5005088 60.8424093,39.8788147 59.539855,37.6538046 C58.2373007,35.4287944 59.4418752,32.4403003 61.5513217,31.3387021 Z" id="Path" fill="#BC8F74"></path>
                        <path d="M63.5342786,38.5486006 C62.2516132,39.4014272 60.7644649,38.7513705 59.7730327,37.3558361 C58.7816005,35.9603017 58.651475,34.4156717 59.927944,33.5568813 C60.8489973,32.8777866 62.0830755,32.7402358 63.1410123,33.1987517 C64.198949,33.6572676 64.9098997,34.6378052 64.9920564,35.751697 C65.0742132,36.8655888 64.5143085,37.9329543 63.5342786,38.5307091 L63.5342786,38.5486006 Z" id="Path" fill="#F4D72F"></path>
                        <path d="M36.5896772,32.8627192 C35.2753069,30.905692 36.2817076,28.6291501 38.3879997,27.1114555 C40.4942919,25.593761 42.9030541,25.3997699 44.211925,27.3567971 C45.5207958,29.3138244 45.2293245,32.6459057 43.1120335,34.1636002 C40.9947425,35.6812948 37.9040475,34.7912183 36.5896772,32.8627192 Z" id="Path" fill="#D2A185"></path>
                        <path d="M43.4712557,29.0290679 C44.4766084,30.2143869 43.9616716,31.7802556 42.6559392,32.9219049 C41.3502068,34.0635542 39.7624851,34.3567647 38.7571325,33.1714457 C37.6331081,31.8466741 37.7771987,29.8454316 39.0789679,28.7015456 C40.3807371,27.5576595 42.3472313,27.7042963 43.4712557,29.0290679 Z" id="Path" fill="#F9E33D"></path>
                        <path d="M61.7623954,44.002922 C60.4149087,50.7421085 53.7513878,53.0760259 46.4226519,51.5531448 C39.0939161,50.0302637 33.8688515,45.1348719 35.2106526,38.4190246 C36.5524537,31.7031772 43.9494168,25.6991747 51.2781526,27.245395 C58.6068885,28.7916153 63.1098822,37.2637355 61.7623954,44.002922 Z" id="Path" fill="#D2A185"></path>
                        <polygon id="Path" fill="#F4D72F" points="5 51 24.7620714 73 37 56.4810496"></polygon>
                        <polygon id="Path" fill="#FFE45C" points="37 56.4810496 55 72 24.7620714 73"></polygon>
                        <path d="M33.3569023,59.4429762 L20.3019027,47.5836074 L21.2115193,46.589135 C21.5251084,46.2566055 21.5766876,45.7553631 21.3373782,45.3660483 C21.1708917,45.1166875 20.8990749,44.957441 20.5999613,44.9340255 C20.3008477,44.91061 20.0075203,45.0256154 19.804188,45.2460257 L17.2870102,48.0122592 C16.9638874,48.3392981 16.9071271,48.8449245 17.1497096,49.235346 C17.3161961,49.4847067 17.5880129,49.6439532 17.8871265,49.6673687 C18.18624,49.6907842 18.4795674,49.5757788 18.6828997,49.3553685 L19.6668874,48.2694504 L32.721887,60.1288192 L32.6932827,63.3980043 L42.0926535,71.9310345 L46,67.6388003 L36.6006292,59.1057701 L33.3569023,59.4429762 Z" id="Path" fill="#2A263F"></path>
                        <path d="M47.018926,51.6111 C54.0604682,53.1663385 60.4628635,50.7922434 61.7684714,43.988075 C63.0740793,37.1839067 58.7420832,28.624204 51.6950782,27.0689655 C51.6950782,27.0689655 56.4313211,33.3959584 48.9145157,39.3812702 C41.3977104,45.3665819 47.018926,51.6111 47.018926,51.6111 Z" id="Path" fill="#BC8F74"></path>
                        <ellipse id="Oval" fill="#FFEB78" transform="translate(47.222897, 45.698677) rotate(-79.600000) translate(-47.222897, -45.698677) " cx="47.2228969" cy="45.6986767" rx="5.79423503" ry="9.0186422"></ellipse>
                        <circle id="Oval" fill="#2A263F" cx="56" cy="39.9310345" r="1"></circle>
                        <circle id="Oval" fill="#E9ECF3" cx="55.5" cy="39.4310345" r="1"></circle>
                        <circle id="Oval" fill="#2A263F" cx="42" cy="36.9310345" r="1"></circle>
                        <circle id="Oval" fill="#E9ECF3" cx="41.5" cy="36.4310345" r="1"></circle>
                        <path d="M45.0405439,23.9310345 C45.0405439,23.9310345 44.7378998,27.6603985 45.7863453,29.3437544 C48.92228,30.9856444 52.3976445,31.871584 55.9357291,31.9310345 C55.9357291,31.9310345 58.4325424,29.9770426 59,27.1407774 L45.0405439,23.9310345 Z" id="Path" fill="#EAEDF2"></path>
                        <path d="M45,24.9513677 C45,24.9513677 46.799458,26.3367551 51.6287263,27.3236063 C56.4579946,28.3104575 59,27.798054 59,27.798054 C56.8178917,26.8614998 54.5406095,26.1054249 52.197832,25.5396829 C49.8396712,25.0612607 47.41858,24.8633727 45,24.9513677 L45,24.9513677 Z" id="Path" fill="#C4C4C4"></path>
                        <path d="M47,26.1068124 C48.5247017,25.1784843 50.4591258,24.7744541 52.3659879,24.9860546 C55.4865162,25.3726726 57,27.9269578 57,27.9269578 C57,27.9269578 52.729224,28.1050627 47,26.1068124 Z" id="Path" fill="#B72F00"></path>
                        <path d="M33.6049499,41.1479511 C34.1731912,41.2038586 34.0643791,42.1662656 33.6815214,42.5855715 C33.2986638,43.0048775 32.258903,43.2245139 32.2306924,42.6614459 C32.2024819,42.0983779 31.7672332,41.6471248 32.1702412,41.2278189 C32.5732493,40.8085129 32.9198362,41.0840569 33.6049499,41.1479511 Z" id="Path" fill="#FFEB78"></path>
                        <circle id="Oval" fill="#FFEB78" cx="31.5" cy="42.5" r="1"></circle>
                        <circle id="Oval" fill="#FFEB78" cx="31.5" cy="40.5" r="1"></circle>
                        <circle id="Oval" fill="#FFEB78" cx="33.5" cy="40.5" r="1"></circle>
                        <path d="M34.9471408,8.71270802 C34.9471408,8.71270802 33.2292167,5.8799874 35,0.943643045 C33.9900273,0.873080585 32.9811136,1.09956679 32.0716002,1.60102547 C30.8611245,2.39586057 30.3483902,3.48950587 28.2287362,3.77636366 C26.1090822,4.06322144 24,6.53736983 24,6.53736983 C24,6.53736983 27.6208554,6.17282139 28.8894762,7.04534715 C30.1580971,7.91787291 32.0345988,9.51351933 34.9471408,8.71270802 Z" id="Path" fill="#008D8A"></path>
                        <path d="M44.0463927,39.8668418 C44.3270696,38.6509688 45.8492021,38.8761304 47.4846849,39.137318 C49.1201677,39.3985055 50.2374777,39.5876413 49.9568008,40.817024 C49.6761239,42.0464067 47.8247358,43.2127441 46.394363,42.8704984 C44.9639903,42.5282526 43.7441253,41.087218 44.0463927,39.8668418 Z" id="Path" fill="#2A263F"></path>
                    </g>
                </g>
            </g>
        </g>
    </g>
</svg>